/srv/ccrc/data32/z3441306/GLACE-CMIP5/CESM/CTL/
/srv/ccrc/data32/z3441306/GLACE-CMIP5/CESM/GC1A85/
cdo monmean: Processed 3047639040 values from 1 variable over 55115 timesteps ( 35.01s )
/srv/ccrc/data32/z3441306/GLACE-CMIP5/CESM/GC1B85/
cdo monmean: Processed 3047639040 values from 1 variable over 55115 timesteps ( 34.62s )
/srv/ccrc/data32/z3441306/GLACE-CMIP5/EC-EARTH/CTL/
cdo setreftime: Changing absolute to relative time axis!
cdo setreftime: Processed 2823782400 values from 1 variable over 55152 timesteps ( 36.30s )
cdo monmean: Processed 2823782400 values from 1 variable over 55152 timesteps ( 16.80s )
/srv/ccrc/data32/z3441306/GLACE-CMIP5/EC-EARTH/GC1A85/
cdo setreftime: Changing absolute to relative time axis!
cdo setreftime: Processed 92774400 values from 1 variable over 1812 timesteps ( 1.18s )
/srv/ccrc/data32/z3441306/GLACE-CMIP5/EC-EARTH/GC1B85/
cdo setreftime: Changing absolute to relative time axis!
cdo setreftime: Processed 92774400 values from 1 variable over 1812 timesteps ( 1.15s )
/srv/ccrc/data32/z3441306/GLACE-CMIP5/ECHAM6/CTL/
cdo invertlat: Processed 33398784 values from 1 variable over 1812 timesteps ( 0.52s )
/srv/ccrc/data32/z3441306/GLACE-CMIP5/ECHAM6/GC1A85/
cdo invertlat: Processed 33398784 values from 1 variable over 1812 timesteps ( 0.48s )
/srv/ccrc/data32/z3441306/GLACE-CMIP5/ECHAM6/GC1B85/
cdo invertlat: Processed 33398784 values from 1 variable over 1812 timesteps ( 0.53s )
/srv/ccrc/data32/z3441306/GLACE-CMIP5/IPSL/CTL/
cdo mergetime: Processed 16736256 values from 6 variables over 1812 timesteps ( 0.36s )
cdo setctomiss: Processed 16717824 values from 3 variables over 1812 timesteps ( 0.52s )
cdo chname: Processed 16717824 values from 3 variables over 1812 timesteps ( 0.37s )
/srv/ccrc/data32/z3441306/GLACE-CMIP5/IPSL/GC1A85/
cdo mergetime: Processed 16736256 values from 6 variables over 1812 timesteps ( 0.38s )
cdo setctomiss: Processed 16717824 values from 3 variables over 1812 timesteps ( 0.52s )
cdo chname: Processed 16717824 values from 3 variables over 1812 timesteps ( 0.38s )
/srv/ccrc/data32/z3441306/GLACE-CMIP5/IPSL/GC1B85/
cdo mergetime: Processed 16736256 values from 6 variables over 1812 timesteps ( 0.37s )
cdo setctomiss: Processed 16717824 values from 3 variables over 1812 timesteps ( 0.54s )
cdo chname: Processed 16717824 values from 3 variables over 1812 timesteps ( 0.38s )
